{
    "metadata": {
      "name": "argocd-shali-sdc4",
      "namespace": "shali-argocd",
      "labels": {},
      "annotations": {},
      "disable": false
    },
    "spec": {
      "domains": [
        "myargocd.shali-sdc4.example.com"
      ],
      "https_auto_cert": {
        "http_redirect": true,
        "add_hsts": false,
        "port": 443,
        "tls_config": {
          "low_security": {}
        },
        "no_mtls": {},
        "default_header": {},
        "enable_path_normalize": {},
        "non_default_loadbalancer": {},
        "header_transformation_type": {
          "default_header_transformation": {}
        },
        "connection_idle_timeout": 0
      },
      "downstream_tls_certificate_expiration_timestamps": [
        {}
      ],
      "advertise_on_public": {
        "public_ip": {
          "tenant": "sdc-support-yqpfidyt",
          "namespace": "shared",
          "name": "ip-159-65-1-30",
          "kind": "public_ip"
        }
      },
      "default_route_pools": [
        {
          "pool": {
            "tenant": "sdc-support-yqpfidyt",
            "namespace": "shali-argocd",
            "name": "shali-argocd-op",
            "kind": "origin_pool"
          },
          "weight": 1,
          "priority": 1,
          "endpoint_subsets": {}
        }
      ],
      "routes": [],
      "disable_waf": {},
      "add_location": true,
      "no_challenge": {},
      "user_id_client_ip": {},
      "disable_rate_limit": {},
      "waf_exclusion_rules": [],
      "data_guard_rules": [],
      "blocked_clients": [],
      "trusted_clients": [],
      "ddos_mitigation_rules": [],
      "no_service_policies": {},
      "round_robin": {},
      "disable_trust_client_ip_headers": {},
      "disable_ddos_detection": {},
      "disable_malicious_user_detection": {},
      "disable_api_discovery": {},
      "disable_bot_defense": {},
      "disable_api_definition": {},
      "disable_ip_reputation": {},
      "disable_client_side_defense": {},
      "graphql_rules": [],
      "dns_info": [],
      "state": "VIRTUAL_HOST_READY",
      "auto_cert_info": {
        "auto_cert_state": "CertificateValid",
        "auto_cert_expiry": "2023-05-02T03:29:15Z",
        "auto_cert_subject": "CN=argocd.shali-sdc4.acirock.com",
        "auto_cert_issuer": "CN=R3,O=Let's Encrypt,C=US",
        "dns_records": []
      }
    }
  }